{
  "defaultSeverity": "error",
  "extends": [
    "tslint:recommended"
  ],
  "jsRules": {},
  "rules": {
    "only-arrow-functions": false,
    "interface-name": [
      true,
      "never-prefix"
    ],
    "no-console": false,
    "array-type": [
      true,
      "generic"
    ],
    "no-bitwise": false,
    "space-before-function-paren": [
      true,
      {
        "anonymous": "always",
        "named": "never",
        "asyncArrow": "always"
      }
    ],
    "object-literal-sort-keys": false,
    "member-ordering": [
      true,
      {
        "order": [
          "private-instance-field",
          "private-static-field",
          "private-instance-method",
          "private-constructor",
          "public-static-field",
          "public-instance-field",
          "public-constructor",
          "public-instance-method",
          "protected-instance-method"
        ]
      }
    ],
    "ordered-imports": [
      true,
      {
        "import-sources-order": "lowercase-last",
        "named-imports-order": "lowercase-first"
      }
    ],
    "interface-over-type-literal": false,
    "max-line-length": false,
    "max-classes-per-file": false,
    "no-shadowed-variable": false,
    "one-variable-per-declaration": false,
    "no-return-await": true,
    "newline-before-return": true,
    "no-namespace": false
  },
  "rulesDirectory": []
}
